PING google.navigation.opendns.com (208.67.219.231): 56 data bytes
64 bytes from 208.67.219.231: icmp_seq=0 ttl=46 time=466.744 ms
64 bytes from 208.67.219.231: icmp_seq=2 ttl=46 time=665.420 ms

--- google.navigation.opendns.com ping statistics ---
3 packets transmitted, 2 packets received, 33% packet loss
round-trip min/avg/max/stddev = 466.744/566.082/665.420/99.338 ms
